{
    "superAccessPreviledges": [{
            "accessPreviledgeName": "Admin User Management",
            "accessPreviledgeSlug": "adminUserManagement"
        },
        {
            "accessPreviledgeName": "Admin Role Management",
            "accessPreviledgeSlug": "adminRoleManagement"
        },
        {
			"accessPreviledgeName": "App Upgrade Management",
			"accessPreviledgeSlug": "appUpgradeManagement"
		}
    ],
    "generalAccessPreviledges": [{
            "accessPreviledgeName": "Painter Registration Management",
            "accessPreviledgeSlug": "painterRegistrationManagement"
        },
        {
            "accessPreviledgeName": "Purchase Registration Management",
            "accessPreviledgeSlug": "purchaseRegistrationManagement"
        },
        {
            "accessPreviledgeName": "Cash & Gift Request Management",
            "accessPreviledgeSlug": "cashAndGiftRequestManagement"
        },
        {
            "accessPreviledgeName": "Product & UID Management",
            "accessPreviledgeSlug": "productAndUIDManagement"
        },
        {
            "accessPreviledgeName": "Milestones & Leaderboard Management",
            "accessPreviledgeSlug": "milestonesAndLeaderboardManagement"
        },
        {
            "accessPreviledgeName": "Complaint Management",
            "accessPreviledgeSlug": "complaintManagement"
        },
        {
            "accessPreviledgeName": "Training Management",
            "accessPreviledgeSlug": "trainingManagement"
        },
        {
            "accessPreviledgeName": "Offers, Schemes & Promotion Management",
            "accessPreviledgeSlug": "offersSchemesAndPromotionManagement"
        },
        {
            "accessPreviledgeName": "Gift & Cash Reward Catelog Management",
            "accessPreviledgeSlug": "giftAndCashRewardCatelogManagement"
        },
        {
            "accessPreviledgeName": "Add Painter",
            "accessPreviledgeSlug": "canAddPainter"
        },
        {
            "accessPreviledgeName": "Verify Painter",
            "accessPreviledgeSlug": "canVerifyPainter"
        },
        {
            "accessPreviledgeName": "Dropoff Painter Management",
            "accessPreviledgeSlug": "dropoffPainterManagement"
        },
        {
            "accessPreviledgeName": "Painter Ledger",
            "accessPreviledgeSlug": "painterLedger"
        },
        {
            "accessPreviledgeName": "Partner Category Management",
            "accessPreviledgeSlug": "partnerManagement" 
        },
        {
            "accessPreviledgeName": "Service Category Management",
            "accessPreviledgeSlug": "serviceManagement"
        },
        {
            "accessPreviledgeName": "Painter Remapping",
            "accessPreviledgeSlug": "painterRemapping"
        },
		{
		    "accessPreviledgeName": "Change Painter Mobile Number",
		    "accessPreviledgeSlug": "canChangePainterMobileNumber"
		},
        {
		    "accessPreviledgeName": "Remove User Offer Points",
		    "accessPreviledgeSlug": "canRemoveSpecialPoints"
		}
    ]
}